Transaction No.,Time (Milliseconds)
0,31
1,33
2,31
3,32
4,31
5,30
6,31
7,31
8,30
9,30
10,33
11,30
12,29
13,30
14,33
15,31
16,30
17,31
18,32
19,30
20,30
21,29
22,33
23,29
24,30
25,29
26,31
27,252
28,28
29,30
30,29
31,50
32,31
33,30
34,31
35,54
36,38
37,78
38,36
39,32
40,32
41,35
42,33
43,34
44,37
45,31
46,39
47,31
48,31
49,33
50,32
51,31
52,32
53,30
54,31
55,31
56,33
57,30
58,31
59,31
60,35
61,31
62,33
63,32
64,33
65,32
66,33
67,35
68,30
69,246
70,32
71,31
72,34
73,32
74,33
75,29
76,29
77,34
78,32
79,32
80,34
81,29
82,32
83,36
84,32
85,30
86,35
87,30
88,29
89,39
90,32
91,31
92,28
93,30
94,35
95,29
96,30
97,31
98,29
99,29