Transaction No.,Time (Milliseconds)
1,3
2,3
3,3
4,3
5,3
6,3
7,5
8,5
9,7
10,6
11,6
12,8
13,6
14,8
15,8
16,7
17,7
18,7
19,2
20,9
21,2
22,2
23,3
24,3
25,2
26,2
27,8
28,2
29,0
30,1
31,2
32,1
33,2
34,20
35,21
36,22
37,23
38,1
39,1
40,1
41,24
42,24
43,25
44,25
45,25
46,25
47,24
48,23
49,24
50,24
51,25
52,25
53,26
54,4
55,4
56,4
57,4
58,7
59,5
60,6
61,8
62,7
63,7
64,3
65,8
66,9
67,10
68,9
69,9
70,2
71,10
72,10
73,2
74,10
75,3
76,13
77,26
78,2
79,2
80,2
81,2
82,2
83,1
84,2
85,55
86,5
87,10
88,68
89,17
90,0
91,4
92,7
93,9
94,8
95,10
96,3
97,7
98,9
99,6
100,9
101,8
102,7
103,29
104,1
105,1
106,2
107,2
108,1
109,1
110,3
111,3
112,1
113,14
114,14
115,15
116,15
117,14
118,16
119,5
120,6
121,7
122,6
123,6
124,19
125,20
126,7
127,7
128,6
129,8
130,6
131,6
132,6
133,8
134,7
135,8
136,8
137,8
138,9
139,9
140,10
141,9
142,10
143,8
144,9
145,9
146,8
147,7
148,8
149,7
150,8
